[gd_scene load_steps=2 format=2]

[ext_resource path="res://objects/game/OrbController.gd" type="Script" id=1]

[node name="OrbController" type="Node" groups=[
"orb_controller",
]]
script = ExtResource( 1 )
