[gd_scene load_steps=2 format=2]

[ext_resource path="res://objects/game/OrbSparkles.gd" type="Script" id=1]

[node name="OrbSparkles" type="Node2D" groups=[
"orb_sparkles",
]]
position = Vector2( 64, 64 )
script = ExtResource( 1 )

[node name="Timer_EmitSparkle" type="Timer" parent="."]
wait_time = 0.05
autostart = true
[connection signal="timeout" from="Timer_EmitSparkle" to="." method="_on_Timer_EmitSparkle_timeout"]
