[gd_scene load_steps=2 format=2]

[ext_resource path="res://objects/singletons/SoundController.gd" type="Script" id=1]

[node name="SoundController" type="Node"]
pause_mode = 2
script = ExtResource( 1 )
