[gd_scene load_steps=6 format=2]

[ext_resource path="res://fonts/paragraph_bold.tres" type="DynamicFont" id=1]
[ext_resource path="res://fonts/heading.tres" type="DynamicFont" id=2]
[ext_resource path="res://sprites/ui/achievements.png" type="Texture" id=3]
[ext_resource path="res://objects/ui/AchievementPopup.gd" type="Script" id=4]

[sub_resource type="AtlasTexture" id=1]
atlas = ExtResource( 3 )
region = Rect2( 0, 0, 32, 32 )

[node name="AchievementPopup" type="Control"]
pause_mode = 2
anchor_right = 1.0
anchor_bottom = 1.0
margin_left = 640.0
margin_top = 8.0
margin_right = -420.0
margin_bottom = -680.0
script = ExtResource( 4 )
__meta__ = {
"_edit_use_anchors_": false
}

[node name="ColorRect" type="ColorRect" parent="."]
margin_right = 230.0
margin_bottom = 32.0
color = Color( 0, 0, 0, 0.501961 )
__meta__ = {
"_edit_use_anchors_": false
}

[node name="TextureRect_Icon" type="TextureRect" parent="."]
margin_left = 4.0
margin_right = 36.0
margin_bottom = 32.0
texture = SubResource( 1 )
__meta__ = {
"_edit_use_anchors_": false
}

[node name="LabelA" type="Label" parent="."]
margin_left = 36.0
margin_top = 2.0
margin_right = 212.0
margin_bottom = 17.0
custom_fonts/font = ExtResource( 2 )
custom_colors/font_color = Color( 0.85098, 0.85098, 0.764706, 1 )
custom_colors/font_outline_modulate = Color( 0, 0, 0, 1 )
custom_colors/font_color_shadow = Color( 0.258824, 0.239216, 0.223529, 1 )
text = "Achievement Achieved!"
align = 2
__meta__ = {
"_edit_use_anchors_": false
}

[node name="LabelB" type="Label" parent="."]
margin_left = 36.0
margin_top = 14.0
margin_right = 212.0
margin_bottom = 30.0
custom_fonts/font = ExtResource( 1 )
custom_colors/font_color = Color( 0.631373, 0.533333, 0.486275, 1 )
custom_colors/font_color_shadow = Color( 0.258824, 0.239216, 0.223529, 1 )
text = "I Have the High Ground!"
align = 2
__meta__ = {
"_edit_use_anchors_": false
}

[node name="Tween" type="Tween" parent="."]
