[gd_scene load_steps=2 format=2]

[ext_resource path="res://objects/particles/Particle.gd" type="Script" id=1]

[node name="Particle" type="Sprite"]
z_index = 260
script = ExtResource( 1 )

[node name="Timer_NextFrame" type="Timer" parent="."]
[connection signal="timeout" from="Timer_NextFrame" to="." method="_on_Timer_NextFrame_timeout"]
